{"frames": {

"1.png":
{
	"frame": {"x":756,"y":723,"w":138,"h":152},
	"rotated": false,
	"trimmed": false,
	"spriteSourceSize": {"x":0,"y":0,"w":138,"h":152},
	"sourceSize": {"w":138,"h":152}
},
"2.png":
{
	"frame": {"x":221,"y":723,"w":178,"h":205},
	"rotated": false,
	"trimmed": false,
	"spriteSourceSize": {"x":0,"y":0,"w":178,"h":205},
	"sourceSize": {"w":178,"h":205}
},
"3.png":
{
	"frame": {"x":1050,"y":794,"w":100,"h":51},
	"rotated": false,
	"trimmed": false,
	"spriteSourceSize": {"x":0,"y":0,"w":100,"h":51},
	"sourceSize": {"w":100,"h":51}
},
"4.png":
{
	"frame": {"x":1073,"y":932,"w":42,"h":58},
	"rotated": false,
	"trimmed": false,
	"spriteSourceSize": {"x":0,"y":0,"w":42,"h":58},
	"sourceSize": {"w":42,"h":58}
},
"5.png":
{
	"frame": {"x":908,"y":947,"w":108,"h":62},
	"rotated": false,
	"trimmed": false,
	"spriteSourceSize": {"x":0,"y":0,"w":108,"h":62},
	"sourceSize": {"w":108,"h":62}
},
"6.png":
{
	"frame": {"x":681,"y":895,"w":85,"h":77},
	"rotated": false,
	"trimmed": false,
	"spriteSourceSize": {"x":0,"y":0,"w":85,"h":77},
	"sourceSize": {"w":85,"h":77}
},
"7.png":
{
	"frame": {"x":1,"y":723,"w":218,"h":222},
	"rotated": false,
	"trimmed": false,
	"spriteSourceSize": {"x":0,"y":0,"w":218,"h":222},
	"sourceSize": {"w":218,"h":222}
},
"8.png":
{
	"frame": {"x":630,"y":975,"w":67,"h":38},
	"rotated": false,
	"trimmed": false,
	"spriteSourceSize": {"x":0,"y":0,"w":67,"h":38},
	"sourceSize": {"w":67,"h":38}
},
"9.png":
{
	"frame": {"x":898,"y":872,"w":111,"h":73},
	"rotated": false,
	"trimmed": false,
	"spriteSourceSize": {"x":0,"y":0,"w":111,"h":73},
	"sourceSize": {"w":111,"h":73}
},
"10.png":
{
	"frame": {"x":1232,"y":821,"w":60,"h":32},
	"rotated": false,
	"trimmed": false,
	"spriteSourceSize": {"x":0,"y":0,"w":60,"h":32},
	"sourceSize": {"w":60,"h":32}
},
"11.png":
{
	"frame": {"x":1018,"y":941,"w":53,"h":62},
	"rotated": false,
	"trimmed": false,
	"spriteSourceSize": {"x":0,"y":0,"w":53,"h":62},
	"sourceSize": {"w":53,"h":62}
},
"12.png":
{
	"frame": {"x":1232,"y":855,"w":46,"h":34},
	"rotated": false,
	"trimmed": false,
	"spriteSourceSize": {"x":0,"y":0,"w":46,"h":34},
	"sourceSize": {"w":46,"h":34}
},
"13.png":
{
	"frame": {"x":821,"y":877,"w":75,"h":74},
	"rotated": false,
	"trimmed": false,
	"spriteSourceSize": {"x":0,"y":0,"w":75,"h":74},
	"sourceSize": {"w":75,"h":74}
},
"14.png":
{
	"frame": {"x":1152,"y":818,"w":78,"h":43},
	"rotated": false,
	"trimmed": false,
	"spriteSourceSize": {"x":0,"y":0,"w":78,"h":43},
	"sourceSize": {"w":78,"h":43}
},
"15.png":
{
	"frame": {"x":224,"y":930,"w":62,"h":83},
	"rotated": false,
	"trimmed": false,
	"spriteSourceSize": {"x":0,"y":0,"w":62,"h":83},
	"sourceSize": {"w":62,"h":83}
},
"16.png":
{
	"frame": {"x":789,"y":956,"w":117,"h":58},
	"rotated": false,
	"trimmed": false,
	"spriteSourceSize": {"x":0,"y":0,"w":117,"h":58},
	"sourceSize": {"w":117,"h":58}
},
"17.png":
{
	"frame": {"x":1151,"y":863,"w":77,"h":43},
	"rotated": false,
	"trimmed": false,
	"spriteSourceSize": {"x":0,"y":0,"w":77,"h":43},
	"sourceSize": {"w":77,"h":43}
},
"18.png":
{
	"frame": {"x":1075,"y":766,"w":37,"h":26},
	"rotated": false,
	"trimmed": false,
	"spriteSourceSize": {"x":0,"y":0,"w":37,"h":26},
	"sourceSize": {"w":37,"h":26}
},
"19.png":
{
	"frame": {"x":367,"y":930,"w":74,"h":78},
	"rotated": false,
	"trimmed": false,
	"spriteSourceSize": {"x":0,"y":0,"w":74,"h":78},
	"sourceSize": {"w":74,"h":78}
},
"20.png":
{
	"frame": {"x":288,"y":930,"w":77,"h":81},
	"rotated": false,
	"trimmed": false,
	"spriteSourceSize": {"x":0,"y":0,"w":77,"h":81},
	"sourceSize": {"w":77,"h":81}
},
"21.png":
{
	"frame": {"x":1075,"y":847,"w":74,"h":51},
	"rotated": false,
	"trimmed": false,
	"spriteSourceSize": {"x":0,"y":0,"w":74,"h":51},
	"sourceSize": {"w":74,"h":51}
},
"22.png":
{
	"frame": {"x":1075,"y":723,"w":40,"h":41},
	"rotated": false,
	"trimmed": false,
	"spriteSourceSize": {"x":0,"y":0,"w":40,"h":41},
	"sourceSize": {"w":40,"h":41}
},
"23.png":
{
	"frame": {"x":1117,"y":929,"w":32,"h":48},
	"rotated": false,
	"trimmed": false,
	"spriteSourceSize": {"x":0,"y":0,"w":32,"h":48},
	"sourceSize": {"w":32,"h":48}
},
"24.png":
{
	"frame": {"x":896,"y":723,"w":96,"h":147},
	"rotated": false,
	"trimmed": false,
	"spriteSourceSize": {"x":0,"y":0,"w":96,"h":147},
	"sourceSize": {"w":96,"h":147}
},
"25.png":
{
	"frame": {"x":1235,"y":783,"w":52,"h":36},
	"rotated": false,
	"trimmed": false,
	"spriteSourceSize": {"x":0,"y":0,"w":52,"h":36},
	"sourceSize": {"w":52,"h":36}
},
"26.png":
{
	"frame": {"x":762,"y":974,"w":25,"h":37},
	"rotated": false,
	"trimmed": false,
	"spriteSourceSize": {"x":0,"y":0,"w":25,"h":37},
	"sourceSize": {"w":25,"h":37}
},
"27.png":
{
	"frame": {"x":699,"y":974,"w":61,"h":40},
	"rotated": false,
	"trimmed": false,
	"spriteSourceSize": {"x":0,"y":0,"w":61,"h":40},
	"sourceSize": {"w":61,"h":40}
},
"28.png":
{
	"frame": {"x":1011,"y":870,"w":19,"h":69},
	"rotated": false,
	"trimmed": false,
	"spriteSourceSize": {"x":0,"y":0,"w":19,"h":69},
	"sourceSize": {"w":19,"h":69}
},
"29.png":
{
	"frame": {"x":1117,"y":723,"w":138,"h":57},
	"rotated": false,
	"trimmed": false,
	"spriteSourceSize": {"x":0,"y":0,"w":138,"h":57},
	"sourceSize": {"w":138,"h":57}
},
"30.png":
{
	"frame": {"x":503,"y":895,"w":63,"h":113},
	"rotated": false,
	"trimmed": false,
	"spriteSourceSize": {"x":0,"y":0,"w":63,"h":113},
	"sourceSize": {"w":63,"h":113}
},
"31.png":
{
	"frame": {"x":450,"y":895,"w":51,"h":114},
	"rotated": false,
	"trimmed": false,
	"spriteSourceSize": {"x":0,"y":0,"w":51,"h":114},
	"sourceSize": {"w":51,"h":114}
},
"32.png":
{
	"frame": {"x":609,"y":895,"w":70,"h":78},
	"rotated": false,
	"trimmed": false,
	"spriteSourceSize": {"x":0,"y":0,"w":70,"h":78},
	"sourceSize": {"w":70,"h":78}
},
"33.png":
{
	"frame": {"x":1032,"y":870,"w":41,"h":60},
	"rotated": false,
	"trimmed": false,
	"spriteSourceSize": {"x":0,"y":0,"w":41,"h":60},
	"sourceSize": {"w":41,"h":60}
},
"34.png":
{
	"frame": {"x":401,"y":723,"w":353,"h":170},
	"rotated": false,
	"trimmed": false,
	"spriteSourceSize": {"x":0,"y":0,"w":353,"h":170},
	"sourceSize": {"w":353,"h":170}
},
"35.png":
{
	"frame": {"x":1224,"y":956,"w":36,"h":36},
	"rotated": false,
	"trimmed": false,
	"spriteSourceSize": {"x":0,"y":0,"w":36,"h":36},
	"sourceSize": {"w":36,"h":36}
},
"36.png":
{
	"frame": {"x":1,"y":947,"w":201,"h":65},
	"rotated": false,
	"trimmed": false,
	"spriteSourceSize": {"x":0,"y":0,"w":201,"h":65},
	"sourceSize": {"w":201,"h":65}
},
"37.png":
{
	"frame": {"x":768,"y":877,"w":51,"h":77},
	"rotated": false,
	"trimmed": false,
	"spriteSourceSize": {"x":0,"y":0,"w":51,"h":77},
	"sourceSize": {"w":51,"h":77}
},
"38.png":
{
	"frame": {"x":1151,"y":908,"w":76,"h":46},
	"rotated": false,
	"trimmed": false,
	"spriteSourceSize": {"x":0,"y":0,"w":76,"h":46},
	"sourceSize": {"w":76,"h":46}
},
"39.png":
{
	"frame": {"x":1229,"y":918,"w":45,"h":25},
	"rotated": false,
	"trimmed": false,
	"spriteSourceSize": {"x":0,"y":0,"w":45,"h":25},
	"sourceSize": {"w":45,"h":25}
},
"40.png":
{
	"frame": {"x":568,"y":895,"w":39,"h":86},
	"rotated": false,
	"trimmed": false,
	"spriteSourceSize": {"x":0,"y":0,"w":39,"h":86},
	"sourceSize": {"w":39,"h":86}
},
"41.png":
{
	"frame": {"x":204,"y":947,"w":18,"h":65},
	"rotated": false,
	"trimmed": false,
	"spriteSourceSize": {"x":0,"y":0,"w":18,"h":65},
	"sourceSize": {"w":18,"h":65}
},
"42.png":
{
	"frame": {"x":1230,"y":891,"w":46,"h":25},
	"rotated": false,
	"trimmed": false,
	"spriteSourceSize": {"x":0,"y":0,"w":46,"h":25},
	"sourceSize": {"w":46,"h":25}
},
"43.png":
{
	"frame": {"x":1075,"y":900,"w":41,"h":27},
	"rotated": false,
	"trimmed": false,
	"spriteSourceSize": {"x":0,"y":0,"w":41,"h":27},
	"sourceSize": {"w":41,"h":27}
},
"44.png":
{
	"frame": {"x":1152,"y":782,"w":81,"h":34},
	"rotated": false,
	"trimmed": false,
	"spriteSourceSize": {"x":0,"y":0,"w":81,"h":34},
	"sourceSize": {"w":81,"h":34}
},
"45.png":
{
	"frame": {"x":1257,"y":723,"w":36,"h":58},
	"rotated": false,
	"trimmed": false,
	"spriteSourceSize": {"x":0,"y":0,"w":36,"h":58},
	"sourceSize": {"w":36,"h":58}
},
"46.png":
{
	"frame": {"x":994,"y":723,"w":54,"h":145},
	"rotated": false,
	"trimmed": false,
	"spriteSourceSize": {"x":0,"y":0,"w":54,"h":145},
	"sourceSize": {"w":54,"h":145}
},
"47.png":
{
	"frame": {"x":1151,"y":956,"w":71,"h":50},
	"rotated": false,
	"trimmed": false,
	"spriteSourceSize": {"x":0,"y":0,"w":71,"h":50},
	"sourceSize": {"w":71,"h":50}
},
"48.png":
{
	"frame": {"x":1118,"y":900,"w":31,"h":26},
	"rotated": false,
	"trimmed": false,
	"spriteSourceSize": {"x":0,"y":0,"w":31,"h":26},
	"sourceSize": {"w":31,"h":26}
},
"49.png":
{
	"frame": {"x":568,"y":983,"w":60,"h":28},
	"rotated": false,
	"trimmed": false,
	"spriteSourceSize": {"x":0,"y":0,"w":60,"h":28},
	"sourceSize": {"w":60,"h":28}
},
"50.png":
{
	"frame": {"x":401,"y":895,"w":47,"h":33},
	"rotated": false,
	"trimmed": false,
	"spriteSourceSize": {"x":0,"y":0,"w":47,"h":33},
	"sourceSize": {"w":47,"h":33}
},
"background.jpg":
{
	"frame": {"x":1,"y":1,"w":1280,"h":720},
	"rotated": false,
	"trimmed": false,
	"spriteSourceSize": {"x":0,"y":0,"w":1280,"h":720},
	"sourceSize": {"w":1280,"h":720}
}},
"meta": {
	"app": "http://www.codeandweb.com/texturepacker",
	"version": "1.0",
	"image": "JsonData.png",
	"format": "RGBA8888",
	"size": {"w":1294,"h":1015},
	"scale": "1",
	"smartupdate": "$TexturePacker:SmartUpdate:78a60d18230ac8cacca8207a38ec4524:52eda298f41040c7389988adf6c1ae74:793c45d93868c9e45f17a619bd1c0fd8$"
}
}
